…
    ## using cached file: C:\Users\rosie\AppData\Local/Cache/R/noaa_ghcnd/USS0023B17S.dly

    ## date created (size, mb): 2021-10-05 10:30:03 (0.913)

    ## file min/max dates: 1999-09-01 / 2021-09-30

## `group_by`

``` r
weather_df %>%
  group_by(name, month)
```

    ## # A tibble: 1,095 x 7
    ## # Groups:   name, month [36]
    ##    name           id          date        prcp  tmax  tmin month     
    ##    <chr>          <chr>       <date>     <dbl> <dbl> <dbl> <date>    
    ##  1 CentralPark_NY USW00094728 2017-01-01     0   8.9   4.4 2017-01-01
    ##  2 CentralPark_NY USW00094728 2017-01-02    53   5     2.8 2017-01-01
    ##  3 CentralPark_NY USW00094728 2017-01-03   147   6.1   3.9 2017-01-01
    ##  4 CentralPark_NY USW00094728 2017-01-04     0  11.1   1.1 2017-01-01
    ##  5 CentralPark_NY USW00094728 2017-01-05     0   1.1  -2.7 2017-01-01
    ##  6 CentralPark_NY USW00094728 2017-01-06    13   0.6  -3.8 2017-01-01
    ##  7 CentralPark_NY USW00094728 2017-01-07    81  -3.2  -6.6 2017-01-01
    ##  8 CentralPark_NY USW00094728 2017-01-08     0  -3.8  -8.8 2017-01-01
    ##  9 CentralPark_NY USW00094728 2017-01-09     0  -4.9  -9.9 2017-01-01
    ## 10 CentralPark_NY USW00094728 2017-01-10     0   7.8  -6   2017-01-01
    ## # ... with 1,085 more rows
…
## grouped `mutate`

``` r
weather_df %>% 
  mutate(
    mean_tmax = mean(tmax, na.rm = T)
  )
```

    ## # A tibble: 1,095 x 8
    ##    name           id          date        prcp  tmax  tmin month      mean_tmax
    ##    <chr>          <chr>       <date>     <dbl> <dbl> <dbl> <date>         <dbl>
    ##  1 CentralPark_NY USW00094728 2017-01-01     0   8.9   4.4 2017-01-01      18.1
    ##  2 CentralPark_NY USW00094728 2017-01-02    53   5     2.8 2017-01-01      18.1
    ##  3 CentralPark_NY USW00094728 2017-01-03   147   6.1   3.9 2017-01-01      18.1
    ##  4 CentralPark_NY USW00094728 2017-01-04     0  11.1   1.1 2017-01-01      18.1
    ##  5 CentralPark_NY USW00094728 2017-01-05     0   1.1  -2.7 2017-01-01      18.1
    ##  6 CentralPark_NY USW00094728 2017-01-06    13   0.6  -3.8 2017-01-01      18.1
    ##  7 CentralPark_NY USW00094728 2017-01-07    81  -3.2  -6.6 2017-01-01      18.1
    ##  8 CentralPark_NY USW00094728 2017-01-08     0  -3.8  -8.8 2017-01-01      18.1
    ##  9 CentralPark_NY USW00094728 2017-01-09     0  -4.9  -9.9 2017-01-01      18.1
    ## 10 CentralPark_NY USW00094728 2017-01-10     0   7.8  -6   2017-01-01      18.1
    ## # ... with 1,085 more rows
…
Lagged variables

``` r
weather_df %>% 
  group_by(name) %>% 
  mutate(
    lagged_tmax = lag(tmax, n = 1),
    tmax_dif = tmax - lagged_tmax
  ) 
```

    ## # A tibble: 1,095 x 9
    ## # Groups:   name [3]
    ##    name     id      date        prcp  tmax  tmin month      lagged_tmax tmax_dif
    ##    <chr>    <chr>   <date>     <dbl> <dbl> <dbl> <date>           <dbl>    <dbl>
    ##  1 Central~ USW000~ 2017-01-01     0   8.9   4.4 2017-01-01        NA     NA    
    ##  2 Central~ USW000~ 2017-01-02    53   5     2.8 2017-01-01         8.9   -3.9  
    ##  3 Central~ USW000~ 2017-01-03   147   6.1   3.9 2017-01-01         5      1.1  
    ##  4 Central~ USW000~ 2017-01-04     0  11.1   1.1 2017-01-01         6.1    5    
    ##  5 Central~ USW000~ 2017-01-05     0   1.1  -2.7 2017-01-01        11.1  -10    
    ##  6 Central~ USW000~ 2017-01-06    13   0.6  -3.8 2017-01-01         1.1   -0.5  
    ##  7 Central~ USW000~ 2017-01-07    81  -3.2  -6.6 2017-01-01         0.6   -3.8  
    ##  8 Central~ USW000~ 2017-01-08     0  -3.8  -8.8 2017-01-01        -3.2   -0.600
    ##  9 Central~ USW000~ 2017-01-09     0  -4.9  -9.9 2017-01-01        -3.8   -1.10 
    ## 10 Central~ USW000~ 2017-01-10     0   7.8  -6   2017-01-01        -4.9   12.7  
    ## # ... with 1,085 more rows
…
